BeautifulSoup==3.2.1
Django==1.5
Pillow==2.5.3
South==1.0
argparse==1.2.1
boto==2.32.1
django-debug-toolbar==1.2.1
django-elasticsearch==0.1
django-extensions==1.3.11
django-forms-bootstrap==3.0.0
django-grappelli==2.5.3
django-mockups==0.4.8
django-pure-pagination==0.2.1
django-storages==1.1.8
elasticsearch==1.2.0
psycopg2==2.5.3
pyes==0.99.5
simplejson==3.6.0
six==1.7.3
sqlparse==0.1.11
urllib3==1.9.1
wsgiref==0.1.2
